lab4/simulation/qsim/datapath.msim.vcd
$comment
	File created using the following command:
		vcd file datapath.msim.vcd -direction
$end
$date
	Sun Apr 05 12:02:00 2020
$end
$version
	ModelSim Version 10.5b
$end
$timescale
	1ps
$end

$scope module datapath_vhd_vec_tst $end
$var wire 1 ! address [7] $end
$var wire 1 " address [6] $end
$var wire 1 # address [5] $end
$var wire 1 $ address [4] $end
$var wire 1 % address [3] $end
$var wire 1 & address [2] $end
$var wire 1 ' address [1] $end
$var wire 1 ( address [0] $end
$var wire 1 ) clear $end
$var wire 1 * clock $end
$var wire 1 + inc $end
$var wire 1 , load $end

$scope module i1 $end
$var wire 1 - gnd $end
$var wire 1 . vcc $end
$var wire 1 / unknown $end
$var wire 1 0 devoe $end
$var wire 1 1 devclrn $end
$var wire 1 2 devpor $end
$var wire 1 3 ww_devoe $end
$var wire 1 4 ww_devclrn $end
$var wire 1 5 ww_devpor $end
$var wire 1 6 ww_address [7] $end
$var wire 1 7 ww_address [6] $end
$var wire 1 8 ww_address [5] $end
$var wire 1 9 ww_address [4] $end
$var wire 1 : ww_address [3] $end
$var wire 1 ; ww_address [2] $end
$var wire 1 < ww_address [1] $end
$var wire 1 = ww_address [0] $end
$var wire 1 > ww_load $end
$var wire 1 ? ww_clear $end
$var wire 1 @ ww_inc $end
$var wire 1 A ww_clock $end
$var wire 1 B \address[0]~input_o\ $end
$var wire 1 C \address[1]~input_o\ $end
$var wire 1 D \address[2]~input_o\ $end
$var wire 1 E \address[3]~input_o\ $end
$var wire 1 F \address[4]~input_o\ $end
$var wire 1 G \address[5]~input_o\ $end
$var wire 1 H \address[6]~input_o\ $end
$var wire 1 I \address[7]~input_o\ $end
$var wire 1 J \load~input_o\ $end
$var wire 1 K \clear~input_o\ $end
$var wire 1 L \inc~input_o\ $end
$var wire 1 M \clock~input_o\ $end
$upscope $end
$upscope $end
$enddefinitions $end
#0
$dumpvars
1)
0*
0+
1,
0-
1.
x/
10
11
12
13
14
15
1>
1?
0@
0A
0B
0C
0D
0E
0F
0G
0H
0I
1J
1K
0L
0M
0!
0"
0#
0$
0%
0&
0'
0(
06
07
08
09
0:
0;
0<
0=
$end
#30000
0)
0?
0K
#55000
1*
1A
1M
#110000
0*
0A
0M
#165000
1*
1A
1M
#220000
0*
0A
0M
#275000
1*
1A
1M
#330000
0*
0A
0M
#385000
1*
1A
1M
#440000
0*
0A
0M
#495000
1*
1A
1M
#550000
0*
0A
0M
#605000
1*
1A
1M
#660000
0*
0A
0M
#715000
1*
1A
1M
#770000
0*
0A
0M
#825000
1*
1A
1M
#880000
0*
0A
0M
#935000
1*
1A
1M
#990000
0*
0A
0M
